<svg width="24" height="24" viewBox="0 0 24 24" fill="none"
  xmlns="http://www.w3.org/2000/svg">
  <path fill-rule="evenodd" clip-rule="evenodd" d="M10 6C10 5.44772 9.55228 5 9 5C8.44772 5 8 5.44772 8 6V15C8 16.1046 7.10457 17 6 17H5C4.44772 17 4 17.4477 4 18C4 18.5523 4.44772 19 5 19H6C8.20914 19 10 17.2091 10 15V6ZM15 9C13.3431 9 12 10.3431 12 12C12 13.6569 13.3431 15 15 15H17C17.5523 15 18 15.4477 18 16C18 16.5523 17.5523 17 17 17H13C12.4477 17 12 17.4477 12 18C12 18.5523 12.4477 19 13 19H17C18.6569 19 20 17.6569 20 16C20 14.3431 18.6569 13 17 13H15C14.4477 13 14 12.5523 14 12C14 11.4477 14.4477 11 15 11H19C19.5523 11 20 10.5523 20 10C20 9.44772 19.5523 9 19 9H15Z" fill="currentColor"/>
</svg>
