<svg width="12" height="13" viewBox="0 0 12 13" fill="none"
  xmlns="http://www.w3.org/2000/svg">
  <path fill-rule="evenodd" clip-rule="evenodd" d="M8.7222 0.5C8.7222 0.223858 8.49834 0 8.2222 0C7.94606 0 7.7222 0.223858 7.7222 0.5V1.11111H4.27777V0.5C4.27777 0.223858 4.05391 0 3.77777 0C3.50163 0 3.27777 0.223858 3.27777 0.5V1.11111H2.11111C1.22132 1.11111 0.5 1.83243 0.5 2.72222V4.94444V10.5C0.5 11.3898 1.22132 12.1111 2.11111 12.1111H9.88889C10.7787 12.1111 11.5 11.3898 11.5 10.5V4.94444V2.72222C11.5 1.83243 10.7787 1.11111 9.88889 1.11111H8.7222V0.5ZM10.5 4.44444V2.72222C10.5 2.38471 10.2264 2.11111 9.88889 2.11111H8.7222V2.72222C8.7222 2.99836 8.49834 3.22222 8.2222 3.22222C7.94606 3.22222 7.7222 2.99836 7.7222 2.72222V2.11111H4.27777V2.72222C4.27777 2.99836 4.05391 3.22222 3.77777 3.22222C3.50163 3.22222 3.27777 2.99836 3.27777 2.72222V2.11111H2.11111C1.7736 2.11111 1.5 2.38471 1.5 2.72222V4.44444H10.5ZM1.5 5.44444H10.5V10.5C10.5 10.8375 10.2264 11.1111 9.88889 11.1111H2.11111C1.7736 11.1111 1.5 10.8375 1.5 10.5V5.44444Z" fill="#9FA9B3"/>
</svg>
