<svg width="24" height="24" viewBox="0 0 24 24" fill="none"
  xmlns="http://www.w3.org/2000/svg">
  <path fill-rule="evenodd" clip-rule="evenodd" d="M23 22H1L3.1 16H0V8H5.9L8 2L12.5 8H18.5V16L23 22ZM16 16H5.21896L3.81896 20H19L16 16ZM10 8H8.01896L8.64929 6.19906L10 8ZM24 8C24 9.38071 23.4404 10.6307 22.5355 11.5355L21.1213 10.1213C21.6642 9.57843 22 8.82843 22 8C22 6.34315 20.6569 5 19 5C18.1716 5 17.4216 5.33579 16.8787 5.87868L15.4645 4.46447C16.3693 3.55964 17.6193 3 19 3C21.7614 3 24 5.23858 24 8Z" fill="currentColor"/>
</svg>
