<svg width="24" height="24" viewBox="0 0 24 24" fill="none"
  xmlns="http://www.w3.org/2000/svg">
  <path fill-rule="evenodd" clip-rule="evenodd" d="M6 3H8V5H16V3H18V5H21V21H3V5H6V3ZM19 7H5V9H19V7ZM5 19V11H19V19H5ZM11 13H7V17H11V13Z" fill="#0D1826"/>
</svg>
