<svg width="16" height="16" viewBox="0 0 16 16" fill="none"
  xmlns="http://www.w3.org/2000/svg">
  <path fill-rule="evenodd" clip-rule="evenodd" d="M12.3536 4.64645C12.5488 4.84171 12.5488 5.15829 12.3536 5.35355L6.85355 10.8536C6.65829 11.0488 6.34171 11.0488 6.14645 10.8536L4.14645 8.85355C3.95118 8.65829 3.95118 8.34171 4.14645 8.14645C4.34171 7.95118 4.65829 7.95118 4.85355 8.14645L6.5 9.79289L11.6464 4.64645C11.8417 4.45118 12.1583 4.45118 12.3536 4.64645Z" fill="#525C66"/>
</svg>
