<svg width="24" height="24" viewBox="0 0 24 24" fill="none"
  xmlns="http://www.w3.org/2000/svg">
  <path fill-rule="evenodd" clip-rule="evenodd" d="M11.9974 8.294L12.0014 8.29L17.996 14.2846L16.5818 15.6988L12.0013 11.1184L7.41372 15.706L5.99951 14.2917L11.9973 8.29393L11.9974 8.294Z" fill="#0D1826"/>
</svg>
