<svg width="24" height="24" viewBox="0 0 24 24" fill="none"
  xmlns="http://www.w3.org/2000/svg">
  <path fill-rule="evenodd" clip-rule="evenodd" d="M3 5H21V7H3V5ZM3 11H21V13H3V11ZM21 17H3V19H21V17Z" fill="#0D1826"/>
</svg>
