<svg width="25" height="24" viewBox="0 0 25 24" fill="none"
  xmlns="http://www.w3.org/2000/svg">
  <path fill-rule="evenodd" clip-rule="evenodd" d="M4.5 1C4.5 0.447715 4.94772 0 5.5 0H19.5C20.0523 0 20.5 0.447715 20.5 1C20.5 1.55228 20.0523 2 19.5 2H5.5C4.94772 2 4.5 1.55228 4.5 1ZM2.5 6C2.5 4.89543 3.39543 4 4.5 4H20.5C21.6046 4 22.5 4.89543 22.5 6V22C22.5 23.1046 21.6046 24 20.5 24H4.5C3.39543 24 2.5 23.1046 2.5 22V6ZM11.5 10C9.84315 10 8.5 11.3431 8.5 13C8.5 14.6569 9.84315 16 11.5 16C13.1569 16 14.5 14.6569 14.5 13C14.5 11.3431 13.1569 10 11.5 10ZM6.5 13C6.5 10.2386 8.73858 8 11.5 8C14.2614 8 16.5 10.2386 16.5 13C16.5 15.7614 14.2614 18 11.5 18C8.73858 18 6.5 15.7614 6.5 13ZM17.2071 17.2929L18.2071 18.2929C18.5976 18.6834 18.5976 19.3166 18.2071 19.7071C17.8166 20.0976 17.1834 20.0976 16.7929 19.7071L15.7929 18.7071C15.4024 18.3166 15.4024 17.6834 15.7929 17.2929C16.1834 16.9024 16.8166 16.9024 17.2071 17.2929Z" fill="currentColor"/>
</svg>
