<svg width="16" height="16" viewBox="0 0 16 16" fill="none"
  xmlns="http://www.w3.org/2000/svg">
  <path fill-rule="evenodd" clip-rule="evenodd" d="M13 3H3L3 13H13V3ZM3 2C2.44772 2 2 2.44772 2 3V13C2 13.5523 2.44772 14 3 14H13C13.5523 14 14 13.5523 14 13V3C14 2.44772 13.5523 2 13 2H3ZM5.80861 5.53794C5.86756 5.51349 5.93221 5.5 6 5.5H9V6.5H7.20711L10.3536 9.64645C10.5488 9.84171 10.5488 10.1583 10.3536 10.3536C10.1583 10.5488 9.84171 10.5488 9.64645 10.3536L6.5 7.20711V9H5.5V6C5.5 5.93221 5.51349 5.86756 5.53794 5.80861C5.56198 5.75051 5.59744 5.69602 5.64433 5.64857C5.64574 5.64715 5.64715 5.64574 5.64857 5.64433C5.69602 5.59744 5.75051 5.56198 5.80861 5.53794Z" fill="#525C66"/>
</svg>
