<svg width="25" height="24" viewBox="0 0 25 24" fill="none"
  xmlns="http://www.w3.org/2000/svg">
  <path fill-rule="evenodd" clip-rule="evenodd" d="M3.5 3.5C2.94772 3.5 2.5 3.94772 2.5 4.5V8.5C2.5 9.05228 2.94772 9.5 3.5 9.5H7.5C8.05228 9.5 8.5 9.05228 8.5 8.5V4.5C8.5 3.94772 8.05228 3.5 7.5 3.5H3.5ZM3.5 13.5C2.94772 13.5 2.5 13.9477 2.5 14.5V18.5C2.5 19.0523 2.94772 19.5 3.5 19.5H7.5C8.05228 19.5 8.5 19.0523 8.5 18.5V14.5C8.5 13.9477 8.05228 13.5 7.5 13.5H3.5ZM10.5 4.5C10.5 3.94772 10.9477 3.5 11.5 3.5H21.5C22.0523 3.5 22.5 3.94772 22.5 4.5C22.5 5.05228 22.0523 5.5 21.5 5.5H11.5C10.9477 5.5 10.5 5.05228 10.5 4.5ZM11.5 13.5C10.9477 13.5 10.5 13.9477 10.5 14.5C10.5 15.0523 10.9477 15.5 11.5 15.5H21.5C22.0523 15.5 22.5 15.0523 22.5 14.5C22.5 13.9477 22.0523 13.5 21.5 13.5H11.5ZM10.5 9.5C10.5 8.94772 10.9477 8.5 11.5 8.5H17.5C18.0523 8.5 18.5 8.94772 18.5 9.5C18.5 10.0523 18.0523 10.5 17.5 10.5H11.5C10.9477 10.5 10.5 10.0523 10.5 9.5ZM11.5 18.5C10.9477 18.5 10.5 18.9477 10.5 19.5C10.5 20.0523 10.9477 20.5 11.5 20.5H17.5C18.0523 20.5 18.5 20.0523 18.5 19.5C18.5 18.9477 18.0523 18.5 17.5 18.5H11.5Z" fill="#525C66"/>
</svg>
