<svg width="8" height="8" viewBox="0 0 8 8" fill="none"
  xmlns="http://www.w3.org/2000/svg">
  <g clip-path="url(#clip0)">
    <path fill-rule="evenodd" clip-rule="evenodd" d="M1.29399 3.99812L1.29 3.99412L5.28413 -1.53209e-05L6.69835 1.4142L4.11836 3.99418L6.70618 6.58201L5.29197 7.99622L1.29393 3.99818L1.29399 3.99812Z" fill="currentColor"/>
  </g>
  <defs>
    <clipPath id="clip0">
      <rect width="8" height="8" fill="white"/>
    </clipPath>
  </defs>
</svg>
