<svg width="40" height="40" viewBox="0 0 40 40" fill="none"
  xmlns="http://www.w3.org/2000/svg">
  <path fill-rule="evenodd" clip-rule="evenodd" d="M13 12H11V28H13V21H19V28H21V12H19V19H13V12ZM29 12H27L24.0008 14.9992L25.4151 16.4134L27 14.8284V28H29V12Z" fill="#0D1826"/>
</svg>
